<?xml version="1.0" encoding="UTF-8"?>
<testsuite xmlns:xsi="http://www.w3.org/2001/XMLSchema-instance" xsi:noNamespaceSchemaLocation="https://maven.apache.org/surefire/maven-surefire-plugin/xsd/surefire-test-report-3.0.xsd" version="3.0" name="CSC5003.AppTest" time="0.014" tests="1" errors="0" skipped="0" failures="0">
  <properties>
    <property name="java.specification.version" value="17"/>
    <property name="sun.jnu.encoding" value="UTF-8"/>
    <property name="java.class.path" value="/home/jules/TSP/CSC_Data/websemantique/src/semantic-web-project/target/test-classes:/home/jules/TSP/CSC_Data/websemantique/src/semantic-web-project/target/classes:/home/jules/.m2/repository/junit/junit/3.8.1/junit-3.8.1.jar:/home/jules/.m2/repository/org/apache/jena/jena-shacl/3.17.0/jena-shacl-3.17.0.jar:/home/jules/.m2/repository/org/apache/jena/jena-arq/3.17.0/jena-arq-3.17.0.jar:/home/jules/.m2/repository/org/apache/jena/jena-core/3.17.0/jena-core-3.17.0.jar:/home/jules/.m2/repository/org/apache/jena/jena-base/3.17.0/jena-base-3.17.0.jar:/home/jules/.m2/repository/org/apache/jena/jena-shaded-guava/3.17.0/jena-shaded-guava-3.17.0.jar:/home/jules/.m2/repository/org/apache/commons/commons-csv/1.8/commons-csv-1.8.jar:/home/jules/.m2/repository/commons-codec/commons-codec/1.15/commons-codec-1.15.jar:/home/jules/.m2/repository/org/apache/commons/commons-compress/1.20/commons-compress-1.20.jar:/home/jules/.m2/repository/com/github/andrewoma/dexx/collection/0.7/collection-0.7.jar:/home/jules/.m2/repository/org/apache/jena/jena-iri/3.17.0/jena-iri-3.17.0.jar:/home/jules/.m2/repository/commons-cli/commons-cli/1.4/commons-cli-1.4.jar:/home/jules/.m2/repository/org/apache/httpcomponents/httpclient/4.5.13/httpclient-4.5.13.jar:/home/jules/.m2/repository/org/apache/httpcomponents/httpcore/4.4.13/httpcore-4.4.13.jar:/home/jules/.m2/repository/com/github/jsonld-java/jsonld-java/0.13.2/jsonld-java-0.13.2.jar:/home/jules/.m2/repository/commons-io/commons-io/2.8.0/commons-io-2.8.0.jar:/home/jules/.m2/repository/com/fasterxml/jackson/core/jackson-core/2.11.3/jackson-core-2.11.3.jar:/home/jules/.m2/repository/com/fasterxml/jackson/core/jackson-databind/2.11.3/jackson-databind-2.11.3.jar:/home/jules/.m2/repository/com/fasterxml/jackson/core/jackson-annotations/2.11.3/jackson-annotations-2.11.3.jar:/home/jules/.m2/repository/org/apache/httpcomponents/httpclient-cache/4.5.13/httpclient-cache-4.5.13.jar:/home/jules/.m2/repository/org/apache/thrift/libthrift/0.13.0/libthrift-0.13.0.jar:/home/jules/.m2/repository/org/slf4j/slf4j-api/1.7.25/slf4j-api-1.7.25.jar:/home/jules/.m2/repository/javax/annotation/javax.annotation-api/1.3.2/javax.annotation-api-1.3.2.jar:/home/jules/.m2/repository/org/slf4j/jcl-over-slf4j/1.7.30/jcl-over-slf4j-1.7.30.jar:/home/jules/.m2/repository/org/apache/jena/jena-tdb/3.17.0/jena-tdb-3.17.0.jar:/home/jules/.m2/repository/org/apache/jena/jena-tdb2/3.17.0/jena-tdb2-3.17.0.jar:/home/jules/.m2/repository/org/apache/jena/jena-dboe-storage/3.17.0/jena-dboe-storage-3.17.0.jar:/home/jules/.m2/repository/org/apache/jena/jena-dboe-trans-data/3.17.0/jena-dboe-trans-data-3.17.0.jar:/home/jules/.m2/repository/org/apache/jena/jena-dboe-transaction/3.17.0/jena-dboe-transaction-3.17.0.jar:/home/jules/.m2/repository/org/apache/jena/jena-dboe-base/3.17.0/jena-dboe-base-3.17.0.jar:/home/jules/.m2/repository/org/apache/jena/jena-dboe-index/3.17.0/jena-dboe-index-3.17.0.jar:/home/jules/.m2/repository/org/apache/jena/jena-rdfconnection/3.17.0/jena-rdfconnection-3.17.0.jar:/home/jules/.m2/repository/com/opencsv/opencsv/5.6/opencsv-5.6.jar:/home/jules/.m2/repository/org/apache/commons/commons-lang3/3.12.0/commons-lang3-3.12.0.jar:/home/jules/.m2/repository/org/apache/commons/commons-text/1.9/commons-text-1.9.jar:/home/jules/.m2/repository/commons-beanutils/commons-beanutils/1.9.4/commons-beanutils-1.9.4.jar:/home/jules/.m2/repository/commons-logging/commons-logging/1.2/commons-logging-1.2.jar:/home/jules/.m2/repository/commons-collections/commons-collections/3.2.2/commons-collections-3.2.2.jar:/home/jules/.m2/repository/org/apache/commons/commons-collections4/4.4/commons-collections4-4.4.jar:"/>
    <property name="java.vm.vendor" value="Private Build"/>
    <property name="sun.arch.data.model" value="64"/>
    <property name="java.vendor.url" value="Unknown"/>
    <property name="os.name" value="Linux"/>
    <property name="java.vm.specification.version" value="17"/>
    <property name="sun.java.launcher" value="SUN_STANDARD"/>
    <property name="user.country" value="US"/>
    <property name="sun.boot.library.path" value="/usr/lib/jvm/java-17-openjdk-amd64/lib"/>
    <property name="sun.java.command" value="/home/jules/TSP/CSC_Data/websemantique/src/semantic-web-project/target/surefire/surefirebooter-20240202231210231_3.jar /home/jules/TSP/CSC_Data/websemantique/src/semantic-web-project/target/surefire 2024-02-02T23-12-10_059-jvmRun1 surefire-20240202231210231_1tmp surefire_0-20240202231210231_2tmp"/>
    <property name="jdk.debug" value="release"/>
    <property name="surefire.test.class.path" value="/home/jules/TSP/CSC_Data/websemantique/src/semantic-web-project/target/test-classes:/home/jules/TSP/CSC_Data/websemantique/src/semantic-web-project/target/classes:/home/jules/.m2/repository/junit/junit/3.8.1/junit-3.8.1.jar:/home/jules/.m2/repository/org/apache/jena/jena-shacl/3.17.0/jena-shacl-3.17.0.jar:/home/jules/.m2/repository/org/apache/jena/jena-arq/3.17.0/jena-arq-3.17.0.jar:/home/jules/.m2/repository/org/apache/jena/jena-core/3.17.0/jena-core-3.17.0.jar:/home/jules/.m2/repository/org/apache/jena/jena-base/3.17.0/jena-base-3.17.0.jar:/home/jules/.m2/repository/org/apache/jena/jena-shaded-guava/3.17.0/jena-shaded-guava-3.17.0.jar:/home/jules/.m2/repository/org/apache/commons/commons-csv/1.8/commons-csv-1.8.jar:/home/jules/.m2/repository/commons-codec/commons-codec/1.15/commons-codec-1.15.jar:/home/jules/.m2/repository/org/apache/commons/commons-compress/1.20/commons-compress-1.20.jar:/home/jules/.m2/repository/com/github/andrewoma/dexx/collection/0.7/collection-0.7.jar:/home/jules/.m2/repository/org/apache/jena/jena-iri/3.17.0/jena-iri-3.17.0.jar:/home/jules/.m2/repository/commons-cli/commons-cli/1.4/commons-cli-1.4.jar:/home/jules/.m2/repository/org/apache/httpcomponents/httpclient/4.5.13/httpclient-4.5.13.jar:/home/jules/.m2/repository/org/apache/httpcomponents/httpcore/4.4.13/httpcore-4.4.13.jar:/home/jules/.m2/repository/com/github/jsonld-java/jsonld-java/0.13.2/jsonld-java-0.13.2.jar:/home/jules/.m2/repository/commons-io/commons-io/2.8.0/commons-io-2.8.0.jar:/home/jules/.m2/repository/com/fasterxml/jackson/core/jackson-core/2.11.3/jackson-core-2.11.3.jar:/home/jules/.m2/repository/com/fasterxml/jackson/core/jackson-databind/2.11.3/jackson-databind-2.11.3.jar:/home/jules/.m2/repository/com/fasterxml/jackson/core/jackson-annotations/2.11.3/jackson-annotations-2.11.3.jar:/home/jules/.m2/repository/org/apache/httpcomponents/httpclient-cache/4.5.13/httpclient-cache-4.5.13.jar:/home/jules/.m2/repository/org/apache/thrift/libthrift/0.13.0/libthrift-0.13.0.jar:/home/jules/.m2/repository/org/slf4j/slf4j-api/1.7.25/slf4j-api-1.7.25.jar:/home/jules/.m2/repository/javax/annotation/javax.annotation-api/1.3.2/javax.annotation-api-1.3.2.jar:/home/jules/.m2/repository/org/slf4j/jcl-over-slf4j/1.7.30/jcl-over-slf4j-1.7.30.jar:/home/jules/.m2/repository/org/apache/jena/jena-tdb/3.17.0/jena-tdb-3.17.0.jar:/home/jules/.m2/repository/org/apache/jena/jena-tdb2/3.17.0/jena-tdb2-3.17.0.jar:/home/jules/.m2/repository/org/apache/jena/jena-dboe-storage/3.17.0/jena-dboe-storage-3.17.0.jar:/home/jules/.m2/repository/org/apache/jena/jena-dboe-trans-data/3.17.0/jena-dboe-trans-data-3.17.0.jar:/home/jules/.m2/repository/org/apache/jena/jena-dboe-transaction/3.17.0/jena-dboe-transaction-3.17.0.jar:/home/jules/.m2/repository/org/apache/jena/jena-dboe-base/3.17.0/jena-dboe-base-3.17.0.jar:/home/jules/.m2/repository/org/apache/jena/jena-dboe-index/3.17.0/jena-dboe-index-3.17.0.jar:/home/jules/.m2/repository/org/apache/jena/jena-rdfconnection/3.17.0/jena-rdfconnection-3.17.0.jar:/home/jules/.m2/repository/com/opencsv/opencsv/5.6/opencsv-5.6.jar:/home/jules/.m2/repository/org/apache/commons/commons-lang3/3.12.0/commons-lang3-3.12.0.jar:/home/jules/.m2/repository/org/apache/commons/commons-text/1.9/commons-text-1.9.jar:/home/jules/.m2/repository/commons-beanutils/commons-beanutils/1.9.4/commons-beanutils-1.9.4.jar:/home/jules/.m2/repository/commons-logging/commons-logging/1.2/commons-logging-1.2.jar:/home/jules/.m2/repository/commons-collections/commons-collections/3.2.2/commons-collections-3.2.2.jar:/home/jules/.m2/repository/org/apache/commons/commons-collections4/4.4/commons-collections4-4.4.jar:"/>
    <property name="sun.cpu.endian" value="little"/>
    <property name="user.home" value="/home/jules"/>
    <property name="user.language" value="en"/>
    <property name="java.specification.vendor" value="Oracle Corporation"/>
    <property name="java.version.date" value="2023-10-17"/>
    <property name="java.home" value="/usr/lib/jvm/java-17-openjdk-amd64"/>
    <property name="file.separator" value="/"/>
    <property name="basedir" value="/home/jules/TSP/CSC_Data/websemantique/src/semantic-web-project"/>
    <property name="java.vm.compressedOopsMode" value="Zero based"/>
    <property name="line.separator" value="&#10;"/>
    <property name="java.vm.specification.vendor" value="Oracle Corporation"/>
    <property name="java.specification.name" value="Java Platform API Specification"/>
    <property name="surefire.real.class.path" value="/home/jules/TSP/CSC_Data/websemantique/src/semantic-web-project/target/surefire/surefirebooter-20240202231210231_3.jar"/>
    <property name="sun.management.compiler" value="HotSpot 64-Bit Tiered Compilers"/>
    <property name="java.runtime.version" value="17.0.9+9-Ubuntu-122.04"/>
    <property name="user.name" value="jules"/>
    <property name="path.separator" value=":"/>
    <property name="os.version" value="6.5.0-15-generic"/>
    <property name="java.runtime.name" value="OpenJDK Runtime Environment"/>
    <property name="file.encoding" value="UTF-8"/>
    <property name="java.vm.name" value="OpenJDK 64-Bit Server VM"/>
    <property name="localRepository" value="/home/jules/.m2/repository"/>
    <property name="java.vendor.url.bug" value="Unknown"/>
    <property name="java.io.tmpdir" value="/tmp"/>
    <property name="java.version" value="17.0.9"/>
    <property name="user.dir" value="/home/jules/TSP/CSC_Data/websemantique/src/semantic-web-project"/>
    <property name="os.arch" value="amd64"/>
    <property name="java.vm.specification.name" value="Java Virtual Machine Specification"/>
    <property name="native.encoding" value="UTF-8"/>
    <property name="java.library.path" value="/usr/java/packages/lib:/usr/lib/x86_64-linux-gnu/jni:/lib/x86_64-linux-gnu:/usr/lib/x86_64-linux-gnu:/usr/lib/jni:/lib:/usr/lib"/>
    <property name="java.vm.info" value="mixed mode, sharing"/>
    <property name="java.vendor" value="Private Build"/>
    <property name="java.vm.version" value="17.0.9+9-Ubuntu-122.04"/>
    <property name="sun.io.unicode.encoding" value="UnicodeLittle"/>
    <property name="java.class.version" value="61.0"/>
  </properties>
  <testcase name="testApp" classname="CSC5003.AppTest" time="0.001"/>
</testsuite>